"Status_VF","Time_VF","Status_Tol","Time_Tol","Time_VFT","Status_VFT","ntisid"
0,160,0,1120,1120,0,170931
0,192,1,47,47,1,569923
0,128,0,906,906,0,670339
0,144,0,1000,1000,0,1678904
0,176,0,1211,1211,0,2338395
0,176,0,1226,1226,0,2585821
1,160,0,1116,1116,2,3245678
0,192,1,530,530,1,3410874
0,192,0,1317,1317,0,3486160
1,64,0,1120,457,2,3929781
0,48,1,12,12,1,3960840
0,192,1,10,10,1,4160869
0,160,0,1170,1170,0,4735841
1,144,0,1357,1012,2,4806806
0,192,0,1449,1449,0,4832850
0,176,0,1232,1232,0,4997049
0,160,0,1126,1126,0,5293609
0,192,0,1344,1344,0,5532366
1,80,2,658,560,2,5820218
0,176,1,75,75,1,6606746
0,192,0,1435,1435,0,6752014
0,192,0,1323,1323,0,8054182
0,128,0,894,894,0,8116091
0,192,0,1300,1300,0,8479103
0,192,0,1357,1357,0,8769736
0,176,0,1232,1232,0,8818606
1,80,0,1340,575,2,9756154
0,192,0,1337,1337,0,10819768
0,160,0,1134,1134,0,11492446
0,128,0,891,891,0,11792168
0,144,0,962,962,0,11939598
0,192,0,1458,1458,0,12122352
0,192,0,1411,1411,0,12448636
0,128,2,256,256,4,13853005
0,96,2,671,671,4,14968258
0,144,0,1008,1008,0,15088399
0,160,0,1140,1140,0,15340043
0,192,0,1316,1316,0,15350452
0,112,0,1116,1116,0,15615149
0,144,0,1006,1006,0,15843348
0,192,0,1443,1443,0,15937852
0,192,0,1366,1366,0,16273509
0,176,1,450,450,1,16598135
0,160,0,1112,1112,0,16759656
0,128,0,887,887,0,17606922
0,144,0,1015,1015,0,17792555
0,128,0,923,923,0,18901124
1,80,0,1232,581,2,19840086
0,128,0,869,869,0,19974384
1,16,2,65,65,4,20478414
0,112,0,783,783,0,20588864
0,160,0,1122,1122,0,20857912
0,144,0,1007,1007,0,21257125
0,0,2,0,0,4,21698345
0,112,1,473,473,1,21921920
0,192,0,1430,1430,0,21934404
0,160,0,1133,1133,0,22871849
0,192,0,1405,1405,0,23132391
1,176,0,1337,1246,2,23323905
1,144,0,1063,1041,2,23953753
0,144,0,1008,1008,0,24431461
0,160,0,1127,1127,0,24643593
0,192,0,1459,1459,0,25463040
0,128,0,908,908,0,25869500
0,160,0,1110,1110,0,27556221
0,192,0,1352,1352,0,27869609
0,176,0,1268,1268,0,28185979
0,160,2,1169,1169,4,28962584
1,192,0,1345,1345,2,29994619
0,112,0,781,781,0,30590001
0,192,0,1458,1458,0,30766589
0,192,0,1344,1344,0,31410319
0,24,2,165,165,4,31653030
1,16,0,918,97,2,32239775
0,128,0,920,920,0,32259481
0,192,0,1373,1373,0,32723653
0,4,2,68,68,4,32894161
0,128,0,889,889,0,32952755
1,80,0,1113,560,2,33063821
1,36,0,1340,249,2,33211611
0,112,0,786,786,0,33488755
0,24,2,167,167,4,33510986
0,160,0,1120,1120,0,34085325
0,0,2,0,0,4,34156600
1,64,0,1281,446,2,34245015
0,160,0,1130,1130,0,34299952
0,128,0,893,893,0,34500766
0,192,0,1367,1367,0,34565927
0,176,2,1209,1209,4,35084073
1,24,0,1244,167,2,35254180
0,176,0,1260,1260,0,35428823
0,176,1,7,7,1,35589184
0,96,0,688,688,0,36128607
0,192,0,1348,1348,0,36860322
0,160,0,1119,1119,0,36966732
0,192,0,1351,1351,0,37280450
0,192,0,1343,1343,0,37300176
0,160,0,1129,1129,0,38221647
0,128,0,897,897,0,38345901
0,192,0,1445,1445,0,38839026
0,160,0,1137,1137,0,39123455
0,48,2,349,349,4,39253859
0,160,0,1125,1125,0,39925219
0,128,0,905,905,0,40252291
1,80,2,916,576,2,40470737
0,192,0,1459,1459,0,40646514
1,64,2,532,439,2,40968935
0,144,0,1012,1012,0,41467193
0,176,2,1222,1222,4,41467637
0,160,0,1114,1114,0,41696243
0,176,0,1198,1198,0,42073727
0,80,2,547,547,4,43259080
0,176,0,1282,1282,0,43465516
0,128,0,898,898,0,43761728
0,144,0,1006,1006,0,43937220
0,192,0,1313,1313,0,44079716
0,128,0,892,892,0,44646378
0,128,0,898,898,0,45250901
1,64,2,569,504,2,45410795
0,128,0,892,892,0,45941861
0,176,0,1216,1216,0,46195013
0,144,0,1034,1034,0,46753147
0,144,0,956,956,0,46835462
1,64,0,1243,445,2,48204073
0,176,0,1358,1358,0,48444661
0,128,0,896,896,0,49271135
1,128,2,924,892,2,49545267
0,192,0,1426,1426,0,49684893
0,192,0,1375,1375,0,50436399
0,192,0,1344,1344,0,50502612
0,160,0,1099,1099,0,50794102
0,192,0,1361,1361,0,50889586
0,128,1,47,47,1,50968633
0,144,0,1008,1008,0,51170642
0,128,2,888,888,4,51958139
0,128,0,902,902,0,52010157
0,128,0,888,888,0,52181671
0,96,2,693,693,4,52503601
0,192,0,1343,1343,0,52920783
0,176,0,1253,1253,0,53005900
0,192,0,1428,1428,0,53126253
0,176,0,1262,1262,0,53314421
0,176,0,1238,1238,0,53647941
0,160,0,1106,1106,0,53828410
1,96,2,731,661,2,54165946
0,112,2,755,755,4,54224783
0,176,0,1241,1241,0,54269338
0,144,0,1009,1009,0,54904445
0,0,2,19,19,4,55018110
0,0,2,0,0,4,55373877
1,80,2,663,577,2,55490006
0,192,0,1337,1337,0,55526344
0,128,0,889,889,0,55861575
0,176,0,1240,1240,0,56226239
0,144,0,1009,1009,0,56737265
0,160,0,1122,1122,0,56864350
0,160,0,1104,1104,0,57176569
0,112,2,1267,1267,4,57411608
0,160,0,1119,1119,0,57766868
0,176,0,1229,1229,0,57854970
0,160,0,1100,1100,0,58199972
1,176,0,1284,1256,2,58997894
0,176,0,1232,1232,0,60129483
0,176,0,1245,1245,0,60219050
0,192,0,1305,1305,0,60397975
0,160,0,1120,1120,0,60472155
0,192,0,1342,1342,0,61264080
0,160,0,1156,1156,0,61302690
0,160,0,1148,1148,0,61333240
1,96,0,1253,666,2,61505750
1,176,0,1232,1232,2,61694600
0,128,0,897,897,0,61847748
0,96,0,711,711,0,62105990
0,160,0,1092,1092,0,62272104
0,160,0,1099,1099,0,62998318
0,176,0,1239,1239,0,63288155
0,192,0,1367,1367,0,63297554
1,64,2,898,478,2,63329201
0,128,0,872,872,0,63362066
0,160,0,1112,1112,0,63536772
0,176,0,1258,1258,0,63973869
0,192,0,1337,1337,0,64298685
0,192,0,1440,1440,0,64465634
0,112,0,840,840,0,64613156
0,96,2,721,721,4,64757257
0,144,0,986,986,0,64922650
0,128,1,9,9,1,65097242
1,16,2,272,112,2,66830564
0,128,0,849,849,0,67126601
1,64,2,544,488,2,67147980
0,192,0,1363,1363,0,67631857
0,160,0,1175,1175,0,68086414
0,160,0,1112,1112,0,68133813
1,24,2,166,166,2,69787761
0,176,0,1246,1246,0,69950622
1,16,0,1250,110,2,70095272
0,192,1,27,27,1,70345763
0,160,2,1255,1255,4,70492347
0,160,0,1119,1119,0,70745456
1,24,2,350,169,2,70971103
0,128,0,899,899,0,71035338
0,160,0,1147,1147,0,71134824
0,160,0,1091,1091,0,71579077
0,144,0,1006,1006,0,71633606
0,192,2,1244,1244,4,71808375
0,144,2,259,259,4,72398748
0,192,0,1444,1444,0,72440696
0,160,0,1094,1094,0,72469193
0,192,1,559,559,1,72549052
0,160,0,1109,1109,0,72621766
0,144,0,1024,1024,0,72911185
0,160,0,1126,1126,0,73000641
0,144,0,896,896,0,73064079
1,80,2,792,559,2,73333158
0,128,2,352,352,4,73558502
1,24,0,1317,163,2,74114704
1,48,0,938,339,2,74115939
0,160,0,1127,1127,0,74986172
1,36,0,1344,245,2,74988562
1,16,2,63,63,4,75141321
1,24,2,894,190,2,75396223
1,96,2,896,685,2,75645819
0,96,0,719,719,0,75774216
0,192,0,1294,1294,0,75789313
0,112,0,747,747,0,76102828
0,96,0,692,692,0,76596910
0,176,0,1211,1211,0,76839486
0,144,0,1057,1057,0,76846232
0,192,0,1343,1343,0,77251923
1,48,2,447,328,2,77407961
1,144,2,990,990,2,77662633
0,128,0,926,926,0,78340079
1,128,1,177,177,1,78422265
0,144,0,1002,1002,0,78591065
0,192,0,1350,1350,0,78962781
0,48,2,448,448,4,79726615
0,192,0,1322,1322,0,80289054
0,192,0,1313,1313,0,80426870
0,176,0,1260,1260,0,80503672
1,64,0,1424,449,2,80770137
0,192,0,1351,1351,0,81159436
0,8,2,58,58,4,81258584
1,24,0,1243,167,2,82397402
0,192,0,1372,1372,0,82655022
0,96,2,672,672,4,82732432
0,128,0,890,890,0,82873110
1,96,0,1201,689,2,82951196
0,192,1,1,1,1,83261224
0,128,0,950,950,0,83378679
0,192,0,1345,1345,0,84180768
0,36,2,296,296,4,84412160
0,160,0,1123,1123,0,85027673
0,128,2,852,852,4,85108509
1,36,0,1125,250,2,85678618
0,0,2,0,0,4,85881762
0,96,0,727,727,0,85973395
0,144,0,1014,1014,0,86395252
0,192,0,1360,1360,0,86496549
0,160,0,1106,1106,0,86709183
0,160,0,1108,1108,0,86795121
0,176,1,22,22,1,87738349
0,176,0,1210,1210,0,88776106
0,48,2,465,465,4,88781113
0,144,0,1045,1045,0,88818215
0,192,0,1344,1344,0,89093714
0,192,0,1304,1304,0,89500116
0,192,0,1464,1464,0,89668345
0,160,0,1141,1141,0,90052498
0,192,0,1353,1353,0,90120479
1,48,2,1246,329,2,90329274
0,160,0,1126,1126,0,90876872
0,144,2,1054,1054,4,91058554
0,160,0,1071,1071,0,91291230
0,192,0,1322,1322,0,91696800
1,24,2,387,175,2,91738602
0,128,2,895,895,4,91758022
1,64,0,1014,443,2,91779462
0,128,0,903,903,0,92044003
1,112,0,1187,784,2,92107734
0,128,0,873,873,0,92252498
1,64,2,556,448,2,92947616
0,176,0,1227,1227,0,93661154
0,176,0,1232,1232,0,93842446
0,112,0,791,791,0,94435270
0,144,0,1026,1026,0,94457246
1,24,0,784,181,2,94760502
0,112,0,748,748,0,94866001
0,36,2,238,238,4,95115477
0,176,0,1224,1224,0,95159854
0,192,0,1379,1379,0,95229883
1,16,2,162,112,2,95423077
0,160,0,1115,1115,0,95893142
0,192,0,1343,1343,0,96172595
0,8,2,56,56,4,96399142
0,176,0,1281,1281,0,97409963
0,176,0,1229,1229,0,97748350
0,48,2,472,472,4,98677647
0,144,0,1031,1031,0,99205960
0,80,2,560,560,4,99515124
0,160,0,1072,1072,0,99522509
